WinCrc Summary Report                                                           27-Apr-2018 9.59.52 am
Root Directory: P:\tools\srec\srecord-1.63-win32
------------------------------------------------------------------------------------------------------
.
     srec_cat.exe                                 27-Apr-2018   4:59:20 PM    1440270    A24938B9
     srec_cmp.exe                                 27-Apr-2018   4:59:21 PM    1301006    44847A67
     srec_info.exe                                27-Apr-2018   4:59:21 PM    1304590    498767AF
     srecord-1.63.pdf                             27-Apr-2018   4:59:26 PM     408795    3371AC52
------------------------------------------------------------------------------------------------------
CRC: 7CC3F4CD            4 Files Scanned         4 Processed, 0 Skipped. 
 
