This example is only a placeholder for the fully featured ISELED 
Demo application.                                                     
Please contact your FAE or sales representative for details on        
how to obtain the ISELED Driver.
                                